Gas Heating Efficiencies of Massachusetts Communities
…
## Warning: One or more parsing issues, see `problems()` for details

## Rows: 7392 Columns: 16
## -- Column specification --------------------------------------------------------
## Delimiter: ","
## chr (2): Location, Sector
## dbl (1): Year
## 
## i Use `spec()` to retrieve the full column specification for this data.
## i Specify the column types or set `show_col_types = FALSE` to quiet this message.

## # A tibble: 7,392 x 16
##    location sector  year    jan    feb    mar    apr    may    jun    jul    aug
##    <chr>    <chr>  <dbl>  <dbl>  <dbl>  <dbl>  <dbl>  <dbl>  <dbl>  <dbl>  <dbl>
##  1 Chelsea  Comme~  2017 1.00e6 895737 1.03e6 655966 504521 379688 320987 348145
##  2 West Sp~ Resid~  2016 1.00e6 922822 6.81e5 481369 242352 137111 120771 115861
##  3 Harwich  Total   2013 1.00e6 946091 7.80e5 501764 311611 220656 199072 196173
##  4 Weston   Resid~  2017 1.00e6 835067 8.40e5 508196 294608 183613 136922 147613
##  5 Shrewsb~ Comme~  2019 1.00e6 867168 7.99e5 519649 339710 225549 203106 240462
##  6 Dartmou~ Resid~  2019 1.00e6 782620 7.23e5 382475 253353 129299 103476 100700
##  7 Sharon   Resid~  2014 1.00e6 936024 8.36e5 427850 207622 120141  99278  99960
##  8 Ludlow   Total   2015 1.01e6 940980 6.69e5 138985 159480 104639  98044  97711
##  9 Swansea  Total   2018 1.01e6 732518 8.13e5 593640 255046 137231 103613 101758
## 10 Braintr~ Resid~  2017 1.01e6 885954 8.15e5 518474 265474 157230 117096 117200
## # ... with 7,382 more rows, and 5 more variables: sept <dbl>, oct <dbl>,
## #   nov <dbl>, dec <dbl>, annual <dbl>
…
